<?xml version="1.0" encoding="UTF-8" standalone="no"?>
<!-- Created with Inkscape (http://www.inkscape.org/) -->

<svg
   xmlns:dc="http://purl.org/dc/elements/1.1/"
   xmlns:cc="http://creativecommons.org/ns#"
   xmlns:rdf="http://www.w3.org/1999/02/22-rdf-syntax-ns#"
   xmlns:svg="http://www.w3.org/2000/svg"
   xmlns="http://www.w3.org/2000/svg"
   xmlns:sodipodi="http://sodipodi.sourceforge.net/DTD/sodipodi-0.dtd"
   xmlns:inkscape="http://www.inkscape.org/namespaces/inkscape"
   width="100%"
   height="100%"
   viewBox="0 0 4 4"
   version="1.1"
   id="svg978"
   inkscape:version="0.92.4 (unknown)"
   sodipodi:docname="load.svg">
  <defs
     id="defs972" />
  <sodipodi:namedview
     id="base"
     pagecolor="#ffffff"
     bordercolor="#666666"
     borderopacity="1.0"
     inkscape:pageopacity="0.0"
     inkscape:pageshadow="2"
     inkscape:zoom="5.6"
     inkscape:cx="-32.241316"
     inkscape:cy="20.669942"
     inkscape:document-units="mm"
     inkscape:current-layer="layer1"
     showgrid="false"
     inkscape:window-width="1366"
     inkscape:window-height="704"
     inkscape:window-x="0"
     inkscape:window-y="27"
     inkscape:window-maximized="1" />
  <metadata
     id="metadata975">
    <rdf:RDF>
      <cc:Work
         rdf:about="">
        <dc:format>image/svg+xml</dc:format>
        <dc:type
           rdf:resource="http://purl.org/dc/dcmitype/StillImage" />
        <dc:title></dc:title>
      </cc:Work>
    </rdf:RDF>
  </metadata>
  <g
     inkscape:label="Capa 1"
     inkscape:groupmode="layer"
     id="layer1"
     transform="translate(0,-293)">
    <g
       id="g829"
       transform="rotate(15,2,294.99999)">
      <path
         sodipodi:open="true"
         transform="rotate(90)"
         d="m 296.41459,-1.9998361 a 1.4146829,1.4146829 0 0 1 -1.04853,1.36647873 1.4146829,1.4146829 0 0 1 -1.5913,-0.65913723 1.4146829,1.4146829 0 0 1 0.22482,-1.7076733"
         sodipodi:end="3.9269908"
         sodipodi:start="0"
         sodipodi:ry="1.4146829"
         sodipodi:rx="1.4146829"
         sodipodi:cy="-1.9998361"
         sodipodi:cx="294.99991"
         sodipodi:type="arc"
         id="path816"
         style="opacity:1;fill:none;fill-opacity:1;fill-rule:nonzero;stroke:#000000;stroke-width:0.537;stroke-linecap:round;stroke-linejoin:round;stroke-miterlimit:4;stroke-dasharray:none;stroke-dashoffset:0;stroke-opacity:1;paint-order:stroke markers fill" />
      <path
         inkscape:transform-center-y="-0.065851937"
         transform="rotate(-30,1.2952883,300.05668)"
         inkscape:transform-center-x="0.065852636"
         d="m 5.9903354,296.38121 -0.6232311,-0.62324 0.8513494,-0.22811 z"
         inkscape:randomized="0"
         inkscape:rounded="0"
         inkscape:flatsided="true"
         sodipodi:arg2="2.3561945"
         sodipodi:arg1="1.3089969"
         sodipodi:r2="0.25443301"
         sodipodi:r1="0.50886601"
         sodipodi:cy="295.88968"
         sodipodi:cx="5.8586311"
         sodipodi:sides="3"
         id="path818"
         style="opacity:1;fill:none;fill-opacity:1;fill-rule:nonzero;stroke:#000000;stroke-width:0.537;stroke-linecap:round;stroke-linejoin:round;stroke-miterlimit:4;stroke-dasharray:none;stroke-dashoffset:0;stroke-opacity:1;paint-order:stroke markers fill"
         sodipodi:type="star" />
      <rect
         ry="1.8413005"
         y="293.15869"
         x="0.15869956"
         height="3.682601"
         width="3.682601"
         id="rect824"
         style="opacity:1;fill:none;fill-opacity:1;fill-rule:nonzero;stroke:none;stroke-width:0.49200001;stroke-linecap:round;stroke-linejoin:round;stroke-miterlimit:4;stroke-dasharray:none;stroke-dashoffset:0;stroke-opacity:1;paint-order:stroke markers fill" />
    </g>
  </g>
</svg>
